The Data Cleaning Document
…
Rows: 72 Columns: 6
── Column specification ────────────────────────────────────────────────────────
Delimiter: ","
chr (2): state_territory, age_group
dbl (4): year, n_studying, population, prop_studying

ℹ Use `spec()` to retrieve the full column specification for this data.
ℹ Specify the column types or set `show_col_types = FALSE` to quiet this message.

education_2014

# A tibble: 72 × 6
    year state_territory age_group n_studying population prop_studying
   <dbl> <chr>           <chr>          <dbl>      <dbl>         <dbl>
 1  2014 ACT             15-19           19.3       23.8        0.811 
 2  2014 ACT             20--24          18.1       31.6        0.573 
 3  2014 ACT             25-29            9.4       34.9        0.269 
 4  2014 ACT             30-34            4.5       32.8        0.137 
 5  2014 ACT             35--39           4.5       28.7        0.157 
 6  2014 ACT             40---44          2.6       28.4        0.0915
 7  2014 ACT             45--49           1         24.2        0.0413
 8  2014 ACT             50-54            3         24          0.125 
 9  2014 ACT             55-74            2.1       67.2      -99     
10  2014 NSW             15-19          388.       462.         0.841 
# ℹ 62 more rows
…
Rows: 72 Columns: 6
── Column specification ────────────────────────────────────────────────────────
Delimiter: ","
chr (2): state_territory, age_group
dbl (4): year, n_studying, population, prop_studying

ℹ Use `spec()` to retrieve the full column specification for this data.
ℹ Specify the column types or set `show_col_types = FALSE` to quiet this message.

education_2015

# A tibble: 72 × 6
    year state_territory age_group n_studying population prop_studying
   <dbl> <chr>           <chr>          <dbl>      <dbl>         <dbl>
 1  2015 ACT             15---19         20.5       22.7        0.903 
 2  2015 ACT             20---24         13.2       29.5      -99     
 3  2015 ACT             25-29           10         33.2        0.301 
 4  2015 ACT             30--34           5.4       32.3        0.167 
 5  2015 ACT             35-39            4.8       28.3        0.170 
 6  2015 ACT             40--44           1.9       28.1        0.0676
 7  2015 ACT             45---49          1.9       25.3        0.0751
 8  2015 ACT             50-54            2.3       24.6        0.0935
 9  2015 ACT             55-74            0.7       68.1        0.0103
10  2015 NSW             15-19          389.       460.         0.845 
# ℹ 62 more rows
