…
tidy_age_state_education_2014 <- clean_education_data(
  raw_education_2014
)

tidy_age_state_education_2014
#> # A tibble: 72 × 6
#>     year state_territory age_group n_studying population prop_studying
#>    <dbl> <chr>           <fct>          <dbl>      <dbl>         <dbl>
#>  1  2014 ACT             15_19           19.3       23.8        0.811 
#>  2  2014 ACT             20_24           18.1       31.6        0.573 
#>  3  2014 ACT             25_29            9.4       34.9        0.269 
#>  4  2014 ACT             30_34            4.5       32.8        0.137 
#>  5  2014 ACT             35_39            4.5       28.7        0.157 
#>  6  2014 ACT             40_44            2.6       28.4        0.0915
#>  7  2014 ACT             45_49            1         24.2        0.0413
#>  8  2014 ACT             50_54            3         24          0.125 
#>  9  2014 ACT             55_74            2.1       67.2       NA     
#> 10  2014 NSW             15_19          388.       462.         0.841 
#> # ℹ 62 more rows
```
…
